 +BB
 +BBO
 ++BB
 ++BB                          ++
  +BBO                        +BB
  +BBB                       +BB
  ++BBO                     +++B
  ++BBB    +++BBB         +++BB
  ++BBBB  +++BBBO++BB    +++BB
  +++BBBB+++BBBO++BBBB  ++BBB
   ++BBB++BBBB+++BBBBBB++BBB
   ++BB++BBBB++BBBBBBB++BBB
   ++++++BBBBBBBBBBBBBBBBBB
    ++++++BBBBBBBBBBBBBBBBB
    ++++++++OOOBBBBBBBBBBBB
     ++++++++OOOOBBBBBBBBBB
      ++++++++OOOBBBBBBBBBB
       ++++++++OBBBBBBBBBB
       ++++++++OBBBBBBBBBB
        ++++++++BBBBBBBBB
        ++++++++OOBBBBBBB
        +++++++OOBBBBBBB
